2021-10-04 18:06:34.2076|ERROR|PRMServices.SQLHelper.PRMMySqlHelper|Unhandled type encountered
2021-10-04 18:06:34.7033|ERROR|PRMServices.PRMPRService|Cannot find table 0.
2021-10-04 18:07:20.8262|ERROR|PRMServices.Utilities|Error in retrieving Data DownloadFile
2021-10-04 18:08:13.3389|ERROR|PRMServices.Utilities|Error in retrieving Data DownloadFile
2021-10-04 18:13:32.7117|ERROR|PRMServices.Utilities|Error in retrieving Data DownloadFile
2021-10-04 18:15:15.5366|ERROR|PRMServices.Utilities|Error in retrieving Data DownloadFile
2021-10-04 18:16:04.7260|ERROR|PRMServices.Utilities|Error in retrieving Data DownloadFile
2021-10-04 18:54:19.6938|ERROR|PRMServices.PRMServices|exception in quote QuatationAprovel method>>>>The best overloaded method match for 'PRMServices.PRMServices.QuoteApproval(int, int, int, bool, string, string, string, decimal)' has some invalid arguments
2021-10-04 18:55:21.4095|ERROR|PRMServices.PRMServices|exception in quote QuatationAprovel method>>>>The best overloaded method match for 'PRMServices.PRMServices.QuoteApproval(int, int, int, bool, string, string, string, decimal)' has some invalid arguments
2021-10-04 19:27:07.6762|ERROR|PRMServices.PRMServices|exception in quote QuatationAprovel method>>>>'Newtonsoft.Json.Linq.JProperty' does not contain a definition for 'reqID'
2021-10-04 19:35:44.3917|ERROR|PRMServices.PRMServices|exception in quote QuatationAprovel method>>>>'Newtonsoft.Json.Linq.JProperty' does not contain a definition for 'reqID'
2021-10-04 19:38:11.5654|ERROR|PRMServices.PRMServices|exception in quote QuatationAprovel method>>>>Cannot perform runtime binding on a null reference
2021-10-04 19:39:35.5973|ERROR|PRMServices.PRMServices|exception in quote QuatationAprovel method>>>>The best overloaded method match for 'PRMServices.PRMServices.QuoteApproval(int, int, int, bool, string, string, string, decimal)' has some invalid arguments
