2021-01-15 12:27:11.0030|ERROR|NeulandSAPIntegration.Program|The remote name could not be resolved: 'nllcosapdev01.neulandlabs.com'   at System.Net.HttpWebRequest.GetRequestStream(TransportContext& context)
   at System.Net.HttpWebRequest.GetRequestStream()
   at System.Web.Services.Protocols.SoapHttpClientProtocol.Invoke(String methodName, Object[] parameters)
   at NeulandSAPIntegration.NeulandSAPIntegration.Neuland.GRN.zgrn_srv.ZFM_GRN_DATA(ZFM_GRN_DATA ZFM_GRN_DATA1) in E:\BASH\centuryply\NeulandSAPIntegration\Web References\NeulandSAPIntegration.Neuland.GRN\Reference.cs:line 80
   at NeulandSAPIntegration.Program.GetGRNDetails() in E:\BASH\centuryply\NeulandSAPIntegration\Program.cs:line 605
2021-01-15 12:31:37.1752|ERROR|NeulandSAPIntegration.Program|The remote name could not be resolved: 'nllcosapdev01.neulandlabs.com'   at System.Net.HttpWebRequest.GetRequestStream(TransportContext& context)
   at System.Net.HttpWebRequest.GetRequestStream()
   at System.Web.Services.Protocols.SoapHttpClientProtocol.Invoke(String methodName, Object[] parameters)
   at NeulandSAPIntegration.NeulandSAPIntegration.Neuland.GRN.zgrn_srv.ZFM_GRN_DATA(ZFM_GRN_DATA ZFM_GRN_DATA1) in E:\BASH\centuryply\NeulandSAPIntegration\Web References\NeulandSAPIntegration.Neuland.GRN\Reference.cs:line 80
   at NeulandSAPIntegration.Program.GetGRNDetails() in E:\BASH\centuryply\NeulandSAPIntegration\Program.cs:line 605
2021-01-15 12:33:43.9149|ERROR|NeulandSAPIntegration.Program|The remote name could not be resolved: 'nllcosapdev01.neulandlabs.com'   at System.Net.HttpWebRequest.GetRequestStream(TransportContext& context)
   at System.Net.HttpWebRequest.GetRequestStream()
   at System.Web.Services.Protocols.SoapHttpClientProtocol.Invoke(String methodName, Object[] parameters)
   at NeulandSAPIntegration.NeulandSAPIntegration.Neuland.GRN.zgrn_srv.ZFM_GRN_DATA(ZFM_GRN_DATA ZFM_GRN_DATA1) in E:\BASH\centuryply\NeulandSAPIntegration\Web References\NeulandSAPIntegration.Neuland.GRN\Reference.cs:line 80
   at NeulandSAPIntegration.Program.GetGRNDetails() in E:\BASH\centuryply\NeulandSAPIntegration\Program.cs:line 605
2021-01-15 12:36:54.2551|ERROR|NeulandSAPIntegration.Program|The remote name could not be resolved: 'nllcosapdev01.neulandlabs.com'   at System.Net.HttpWebRequest.GetRequestStream(TransportContext& context)
   at System.Net.HttpWebRequest.GetRequestStream()
   at System.Web.Services.Protocols.SoapHttpClientProtocol.Invoke(String methodName, Object[] parameters)
   at NeulandSAPIntegration.NeulandSAPIntegration.Neuland.GRN.zgrn_srv.ZFM_GRN_DATA(ZFM_GRN_DATA ZFM_GRN_DATA1)
   at NeulandSAPIntegration.Program.GetGRNDetails()
2021-01-15 12:41:23.5621|ERROR|NeulandSAPIntegration.Program|The remote name could not be resolved: 'nllcosapdev01.neulandlabs.com'   at System.Net.HttpWebRequest.GetRequestStream(TransportContext& context)
   at System.Net.HttpWebRequest.GetRequestStream()
   at System.Web.Services.Protocols.SoapHttpClientProtocol.Invoke(String methodName, Object[] parameters)
   at NeulandSAPIntegration.NeulandSAPIntegration.Neuland.GRN.zgrn_srv.ZFM_GRN_DATA(ZFM_GRN_DATA ZFM_GRN_DATA1) in E:\BASH\centuryply\NeulandSAPIntegration\Web References\NeulandSAPIntegration.Neuland.GRN\Reference.cs:line 80
   at NeulandSAPIntegration.Program.GetGRNDetails() in E:\BASH\centuryply\NeulandSAPIntegration\Program.cs:line 605
2021-01-15 12:42:13.1734|ERROR|NeulandSAPIntegration.Program|The remote name could not be resolved: 'nllcosapdev01.neulandlabs.com'   at System.Net.HttpWebRequest.GetRequestStream(TransportContext& context)
   at System.Net.HttpWebRequest.GetRequestStream()
   at System.Web.Services.Protocols.SoapHttpClientProtocol.Invoke(String methodName, Object[] parameters)
   at NeulandSAPIntegration.Neuland.PROD.PR.ZPREQ_SRV.ZFM_PR_DATA(ZFM_PR_DATA ZFM_PR_DATA1) in E:\BASH\centuryply\NeulandSAPIntegration\Web References\Neuland.PROD.PR\Reference.cs:line 80
   at NeulandSAPIntegration.Program.GetPRDetails() in E:\BASH\centuryply\NeulandSAPIntegration\Program.cs:line 437
2021-01-15 12:44:28.3974|ERROR|NeulandSAPIntegration.Program|The remote name could not be resolved: 'nllcosapdev01.neulandlabs.com'   at System.Net.HttpWebRequest.GetRequestStream(TransportContext& context)
   at System.Net.HttpWebRequest.GetRequestStream()
   at System.Web.Services.Protocols.SoapHttpClientProtocol.Invoke(String methodName, Object[] parameters)
   at NeulandSAPIntegration.Neuland.PROD.PR.ZPREQ_SRV.ZFM_PR_DATA(ZFM_PR_DATA ZFM_PR_DATA1)
   at NeulandSAPIntegration.Program.GetPRDetails()
2021-01-15 12:49:09.3638|ERROR|NeulandSAPIntegration.Program|The remote name could not be resolved: 'nllcosapdev01.neulandlabs.com'   at System.Net.HttpWebRequest.GetRequestStream(TransportContext& context)
   at System.Net.HttpWebRequest.GetRequestStream()
   at System.Web.Services.Protocols.SoapHttpClientProtocol.Invoke(String methodName, Object[] parameters)
   at NeulandSAPIntegration.Neuland.PROD.PR.ZPREQ_SRV.ZFM_PR_DATA(ZFM_PR_DATA ZFM_PR_DATA1) in E:\BASH\centuryply\NeulandSAPIntegration\Web References\Neuland.PROD.PR\Reference.cs:line 80
   at NeulandSAPIntegration.Program.GetPRDetails() in E:\BASH\centuryply\NeulandSAPIntegration\Program.cs:line 437
2021-01-15 12:50:26.0650|ERROR|NeulandSAPIntegration.Program|The remote name could not be resolved: 'nllcosapdev01.neulandlabs.com'   at System.Net.HttpWebRequest.GetRequestStream(TransportContext& context)
   at System.Net.HttpWebRequest.GetRequestStream()
   at System.Web.Services.Protocols.SoapHttpClientProtocol.Invoke(String methodName, Object[] parameters)
   at NeulandSAPIntegration.NeulandSAPIntegration.Neuland.GRN.zgrn_srv.ZFM_GRN_DATA(ZFM_GRN_DATA ZFM_GRN_DATA1) in E:\BASH\centuryply\NeulandSAPIntegration\Web References\NeulandSAPIntegration.Neuland.GRN\Reference.cs:line 80
   at NeulandSAPIntegration.Program.GetGRNDetails() in E:\BASH\centuryply\NeulandSAPIntegration\Program.cs:line 605
2021-01-15 12:51:42.6771|ERROR|NeulandSAPIntegration.Program|The remote name could not be resolved: 'nllcosapdev01.neulandlabs.com'   at System.Net.HttpWebRequest.GetRequestStream(TransportContext& context)
   at System.Net.HttpWebRequest.GetRequestStream()
   at System.Web.Services.Protocols.SoapHttpClientProtocol.Invoke(String methodName, Object[] parameters)
   at NeulandSAPIntegration.NeulandSAPIntegration.Neuland.GRN.zgrn_srv.ZFM_GRN_DATA(ZFM_GRN_DATA ZFM_GRN_DATA1) in E:\BASH\centuryply\NeulandSAPIntegration\Web References\NeulandSAPIntegration.Neuland.GRN\Reference.cs:line 80
   at NeulandSAPIntegration.Program.GetGRNDetails() in E:\BASH\centuryply\NeulandSAPIntegration\Program.cs:line 605
2021-01-15 18:48:25.2667|ERROR|NeulandSAPIntegration.Program|The remote name could not be resolved: 'nllcosapdev01.neulandlabs.com'   at System.Net.HttpWebRequest.GetRequestStream(TransportContext& context)
   at System.Net.HttpWebRequest.GetRequestStream()
   at System.Web.Services.Protocols.SoapHttpClientProtocol.Invoke(String methodName, Object[] parameters)
   at NeulandSAPIntegration.NeulandSAPIntegration.Neuland.GRN.zgrn_srv.ZFM_GRN_DATA(ZFM_GRN_DATA ZFM_GRN_DATA1) in E:\BASH\centuryply\NeulandSAPIntegration\Web References\NeulandSAPIntegration.Neuland.GRN\Reference.cs:line 80
   at NeulandSAPIntegration.Program.GetGRNDetails() in E:\BASH\centuryply\NeulandSAPIntegration\Program.cs:line 611
2021-01-15 18:49:33.0821|ERROR|NeulandSAPIntegration.Program|The remote name could not be resolved: 'nllcosapdev01.neulandlabs.com'   at System.Net.HttpWebRequest.GetRequestStream(TransportContext& context)
   at System.Net.HttpWebRequest.GetRequestStream()
   at System.Web.Services.Protocols.SoapHttpClientProtocol.Invoke(String methodName, Object[] parameters)
   at NeulandSAPIntegration.NeulandSAPIntegration.Neuland.GRN.zgrn_srv.ZFM_GRN_DATA(ZFM_GRN_DATA ZFM_GRN_DATA1) in E:\BASH\centuryply\NeulandSAPIntegration\Web References\NeulandSAPIntegration.Neuland.GRN\Reference.cs:line 80
   at NeulandSAPIntegration.Program.GetGRNDetails() in E:\BASH\centuryply\NeulandSAPIntegration\Program.cs:line 611
